{
    "content": [
        {
            "campo": "Jefferson Ferreira Sa",
            "quantidade": 1155
        },
        {
            "campo": "Marcio Henrique Da Silva Fonseca",
            "quantidade": 1023
        },
        {
            "campo": "Fabiana Campos Silva",
            "quantidade": 787
        },
        {
            "campo": "Kleuber Silva Ribeiro",
            "quantidade": 760
        },
        {
            "campo": "Lucas Pereira Teixeira",
            "quantidade": 627
        },
        {
            "campo": "Manfrini Pereira Freire",
            "quantidade": 603
        },
        {
            "campo": "Thalyson David Verde Lima",
            "quantidade": 576
        },
        {
            "campo": "Saulo Goes Bittencourt",
            "quantidade": 563
        },
        {
            "campo": "Alcides Rodrigues Sodre",
            "quantidade": 427
        },
        {
            "campo": "Luis Roberto Coimbra Nogueira",
            "quantidade": 412
        },
        {
            "campo": "Marcio Sygeaks Frazão Barros",
            "quantidade": 314
        },
        {
            "campo": "Inaldo Rabelo Junior",
            "quantidade": 281
        },
        {
            "campo": "Roneldes Nascimento Cabral",
            "quantidade": 207
        },
        {
            "campo": "Cesar Roberto  Quintella Castro",
            "quantidade": 182
        },
        {
            "campo": "Thayanne Rafaella Da Silva Monteiro",
            "quantidade": 177
        },
        {
            "campo": "Eduardo Marques Teixeira",
            "quantidade": 142
        },
        {
            "campo": "Kerlyson Dos Santos Silva",
            "quantidade": 118
        },
        {
            "campo": "Arthur Cantanhede Lima",
            "quantidade": 117
        },
        {
            "campo": "Otávio Cesar Da Costa Dos Santos",
            "quantidade": 111
        },
        {
            "campo": "Marcio Lucas Mota Caminha",
            "quantidade": 108
        },
        {
            "campo": "Maciel De Araujo Barbosa",
            "quantidade": 101
        },
        {
            "campo": "Felipe Caldas",
            "quantidade": 97
        },
        {
            "campo": "Allan Leite",
            "quantidade": 95
        },
        {
            "campo": "Liliana Araújo Campos",
            "quantidade": 92
        },
        {
            "campo": "Halaylanderson Mendes Da Silva",
            "quantidade": 92
        },
        {
            "campo": "Adriano Dos Santos Rêgo",
            "quantidade": 84
        },
        {
            "campo": "Jarbas De Jesus Campos Garcia",
            "quantidade": 58
        },
        {
            "campo": "Raymara  Luz Pereira",
            "quantidade": 57
        },
        {
            "campo": "Lucas Lima",
            "quantidade": 54
        },
        {
            "campo": "Ruy  Santos De Matos",
            "quantidade": 53
        },
        {
            "campo": "Cláudio Roberto Bittencourt  Vidigal",
            "quantidade": 52
        },
        {
            "campo": "João Fellype Sa Menezes Da Silva",
            "quantidade": 50
        },
        {
            "campo": "Sidney Figueira De  Carvalho",
            "quantidade": 49
        },
        {
            "campo": "Marlon Das Silva Pestana",
            "quantidade": 37
        },
        {
            "campo": "Aurélio Miguel Vieria Coelho",
            "quantidade": 33
        },
        {
            "campo": "Wellerson   Demetrius Coutinho",
            "quantidade": 32
        },
        {
            "campo": "Luan De Magalhães Pessoa Ferro",
            "quantidade": 31
        },
        {
            "campo": "Carcius Clayton Andrade Santos Jacinto",
            "quantidade": 29
        },
        {
            "campo": "Valeria Priscilla Monteiro Fernandes",
            "quantidade": 26
        },
        {
            "campo": "João Vitor Alves  Ferreira",
            "quantidade": 24
        },
        {
            "campo": "Filipe De Jesus Lobato",
            "quantidade": 23
        },
        {
            "campo": "Renato Rodrigues De Souza Junior",
            "quantidade": 22
        },
        {
            "campo": "Pedro Ivo Medeiros De Azevedo",
            "quantidade": 22
        },
        {
            "campo": "Luis Jhonne Carvalhal De Melo",
            "quantidade": 21
        },
        {
            "campo": "Lucas De Jesus Sousa",
            "quantidade": 20
        },
        {
            "campo": "Moises Pinto Do Nascimento",
            "quantidade": 20
        },
        {
            "campo": "Thiago Felipe Lemos Pereira",
            "quantidade": 14
        },
        {
            "campo": "Jainilene Diane Pereira Do Nascimento",
            "quantidade": 13
        },
        {
            "campo": "Erick  Nascimento Almeida",
            "quantidade": 13
        },
        {
            "campo": "João Gustavo Matos Maranhão",
            "quantidade": 12
        }
    ],
    "pageable": {
        "sort": {
            "unsorted": true,
            "sorted": false,
            "empty": true
        },
        "offset": 0,
        "pageNumber": 0,
        "pageSize": 50,
        "paged": true,
        "unpaged": false
    },
    "last": false,
    "totalElements": 66,
    "totalPages": 2,
    "size": 50,
    "number": 0,
    "numberOfElements": 50,
    "sort": {
        "unsorted": true,
        "sorted": false,
        "empty": true
    },
    "first": true,
    "empty": false
}